pulsar_devkit/simple_examples/minimal_HLSArray_BRAM_ILA/.Xil/Vivado-46749-nucts01/hw_ila_data_1/zip_work/waveform.vcd
$date
        2017-Oct-10 11:55:13
$end
$version
        Vivado v2016.4 (64-bit)
$end
$timescale
        1ps
$end
$scope module dut $end
$var reg 32 " my_test_algo/bram_to_hls [63:32] $end
$var reg 32 B my_test_algo/bram_to_hls_1 [31:0] $end
$var reg 32 b my_test_algo/hls_to_ila [31:0] $end
$var reg 1 $" _TRIGGER $end
$var reg 1 %" _WINDOW $end
$var reg 1 &" _GAP $end
$upscope $end
$enddefinitions $end
#0
$dumpvars
b100010001000100010001000100010 "
b10111011101110111011101110111011 B
b1000100010001000100010001000101 b
1$"
1%"
0&"
$end
#1
b10001000100010001000100010001 "
b10101010101010101010101010101010 B
b1010101010101010101010101010110 b
#2
b100010001000100010001000100010 "
b10111011101110111011101110111011 B
b1000100010001000100010001000101 b
#3
b10001000100010001000100010001 "
b10101010101010101010101010101010 B
b1010101010101010101010101010110 b
#4
b100010001000100010001000100010 "
b10111011101110111011101110111011 B
b1000100010001000100010001000101 b
#5
b10001000100010001000100010001 "
b10101010101010101010101010101010 B
b1010101010101010101010101010110 b
#6
b100010001000100010001000100010 "
b10111011101110111011101110111011 B
b1000100010001000100010001000101 b
#7
b10001000100010001000100010001 "
b10101010101010101010101010101010 B
b1010101010101010101010101010110 b
#8
b100010001000100010001000100010 "
b10111011101110111011101110111011 B
b1000100010001000100010001000101 b
#9
b10001000100010001000100010001 "
b10101010101010101010101010101010 B
b1010101010101010101010101010110 b
#10
b100010001000100010001000100010 "
b10111011101110111011101110111011 B
b1000100010001000100010001000101 b
#11
b10001000100010001000100010001 "
b10101010101010101010101010101010 B
b1010101010101010101010101010110 b
#12
b100010001000100010001000100010 "
b10111011101110111011101110111011 B
b1000100010001000100010001000101 b
#13
b10001000100010001000100010001 "
b10101010101010101010101010101010 B
b1010101010101010101010101010110 b
#14
b100010001000100010001000100010 "
b10111011101110111011101110111011 B
b1000100010001000100010001000101 b
#15
b10001000100010001000100010001 "
b10101010101010101010101010101010 B
b1010101010101010101010101010110 b
#16
b100010001000100010001000100010 "
b10111011101110111011101110111011 B
b1000100010001000100010001000101 b
#17
b10001000100010001000100010001 "
b10101010101010101010101010101010 B
b1010101010101010101010101010110 b
#18
b100010001000100010001000100010 "
b10111011101110111011101110111011 B
b1000100010001000100010001000101 b
#19
b10001000100010001000100010001 "
b10101010101010101010101010101010 B
b1010101010101010101010101010110 b
#20
b100010001000100010001000100010 "
b10111011101110111011101110111011 B
b1000100010001000100010001000101 b
#21
b10001000100010001000100010001 "
b10101010101010101010101010101010 B
b1010101010101010101010101010110 b
#22
b100010001000100010001000100010 "
b10111011101110111011101110111011 B
b1000100010001000100010001000101 b
#23
b10001000100010001000100010001 "
b10101010101010101010101010101010 B
b1010101010101010101010101010110 b
#24
b100010001000100010001000100010 "
b10111011101110111011101110111011 B
b1000100010001000100010001000101 b
#25
b10001000100010001000100010001 "
b10101010101010101010101010101010 B
b1010101010101010101010101010110 b
#26
b100010001000100010001000100010 "
b10111011101110111011101110111011 B
b1000100010001000100010001000101 b
#27
b10001000100010001000100010001 "
b10101010101010101010101010101010 B
b1010101010101010101010101010110 b
#28
b100010001000100010001000100010 "
b10111011101110111011101110111011 B
b1000100010001000100010001000101 b
#29
b10001000100010001000100010001 "
b10101010101010101010101010101010 B
b1010101010101010101010101010110 b
#30
b100010001000100010001000100010 "
b10111011101110111011101110111011 B
b1000100010001000100010001000101 b
#31
b10001000100010001000100010001 "
b10101010101010101010101010101010 B
b1010101010101010101010101010110 b
#32
b100010001000100010001000100010 "
b10111011101110111011101110111011 B
b1000100010001000100010001000101 b
#33
b10001000100010001000100010001 "
b10101010101010101010101010101010 B
b1010101010101010101010101010110 b
#34
b100010001000100010001000100010 "
b10111011101110111011101110111011 B
b1000100010001000100010001000101 b
#35
b10001000100010001000100010001 "
b10101010101010101010101010101010 B
b1010101010101010101010101010110 b
#36
b100010001000100010001000100010 "
b10111011101110111011101110111011 B
b1000100010001000100010001000101 b
#37
b10001000100010001000100010001 "
b10101010101010101010101010101010 B
b1010101010101010101010101010110 b
#38
b100010001000100010001000100010 "
b10111011101110111011101110111011 B
b1000100010001000100010001000101 b
#39
b10001000100010001000100010001 "
b10101010101010101010101010101010 B
b1010101010101010101010101010110 b
#40
b100010001000100010001000100010 "
b10111011101110111011101110111011 B
b1000100010001000100010001000101 b
#41
b10001000100010001000100010001 "
b10101010101010101010101010101010 B
b1010101010101010101010101010110 b
#42
b100010001000100010001000100010 "
b10111011101110111011101110111011 B
b1000100010001000100010001000101 b
#43
b10001000100010001000100010001 "
b10101010101010101010101010101010 B
b1010101010101010101010101010110 b
#44
b100010001000100010001000100010 "
b10111011101110111011101110111011 B
b1000100010001000100010001000101 b
#45
b10001000100010001000100010001 "
b10101010101010101010101010101010 B
b1010101010101010101010101010110 b
#46
b100010001000100010001000100010 "
b10111011101110111011101110111011 B
b1000100010001000100010001000101 b
#47
b10001000100010001000100010001 "
b10101010101010101010101010101010 B
b1010101010101010101010101010110 b
#48
b100010001000100010001000100010 "
b10111011101110111011101110111011 B
b1000100010001000100010001000101 b
#49
b10001000100010001000100010001 "
b10101010101010101010101010101010 B
b1010101010101010101010101010110 b
#50
b100010001000100010001000100010 "
b10111011101110111011101110111011 B
b1000100010001000100010001000101 b
#51
b10001000100010001000100010001 "
b10101010101010101010101010101010 B
b1010101010101010101010101010110 b
#52
b100010001000100010001000100010 "
b10111011101110111011101110111011 B
b1000100010001000100010001000101 b
#53
b10001000100010001000100010001 "
b10101010101010101010101010101010 B
b1010101010101010101010101010110 b
#54
b100010001000100010001000100010 "
b10111011101110111011101110111011 B
b1000100010001000100010001000101 b
#55
b10001000100010001000100010001 "
b10101010101010101010101010101010 B
b1010101010101010101010101010110 b
#56
b100010001000100010001000100010 "
b10111011101110111011101110111011 B
b1000100010001000100010001000101 b
#57
b10001000100010001000100010001 "
b10101010101010101010101010101010 B
b1010101010101010101010101010110 b
#58
b100010001000100010001000100010 "
b10111011101110111011101110111011 B
b1000100010001000100010001000101 b
#59
b10001000100010001000100010001 "
b10101010101010101010101010101010 B
b1010101010101010101010101010110 b
#60
b100010001000100010001000100010 "
b10111011101110111011101110111011 B
b1000100010001000100010001000101 b
#61
b10001000100010001000100010001 "
b10101010101010101010101010101010 B
b1010101010101010101010101010110 b
#62
b100010001000100010001000100010 "
b10111011101110111011101110111011 B
b1000100010001000100010001000101 b
#63
b10001000100010001000100010001 "
b10101010101010101010101010101010 B
b1010101010101010101010101010110 b
#64
b100010001000100010001000100010 "
b10111011101110111011101110111011 B
b1000100010001000100010001000101 b
#65
b10001000100010001000100010001 "
b10101010101010101010101010101010 B
b1010101010101010101010101010110 b
#66
b100010001000100010001000100010 "
b10111011101110111011101110111011 B
b1000100010001000100010001000101 b
#67
b10001000100010001000100010001 "
b10101010101010101010101010101010 B
b1010101010101010101010101010110 b
#68
b100010001000100010001000100010 "
b10111011101110111011101110111011 B
b1000100010001000100010001000101 b
#69
b10001000100010001000100010001 "
b10101010101010101010101010101010 B
b1010101010101010101010101010110 b
#70
b100010001000100010001000100010 "
b10111011101110111011101110111011 B
b1000100010001000100010001000101 b
#71
b10001000100010001000100010001 "
b10101010101010101010101010101010 B
b1010101010101010101010101010110 b
#72
b100010001000100010001000100010 "
b10111011101110111011101110111011 B
b1000100010001000100010001000101 b
#73
b10001000100010001000100010001 "
b10101010101010101010101010101010 B
b1010101010101010101010101010110 b
#74
b100010001000100010001000100010 "
b10111011101110111011101110111011 B
b1000100010001000100010001000101 b
#75
b10001000100010001000100010001 "
b10101010101010101010101010101010 B
b1010101010101010101010101010110 b
#76
b100010001000100010001000100010 "
b10111011101110111011101110111011 B
b1000100010001000100010001000101 b
#77
b10001000100010001000100010001 "
b10101010101010101010101010101010 B
b1010101010101010101010101010110 b
#78
b100010001000100010001000100010 "
b10111011101110111011101110111011 B
b1000100010001000100010001000101 b
#79
b10001000100010001000100010001 "
b10101010101010101010101010101010 B
b1010101010101010101010101010110 b
#80
b100010001000100010001000100010 "
b10111011101110111011101110111011 B
b1000100010001000100010001000101 b
#81
b10001000100010001000100010001 "
b10101010101010101010101010101010 B
b1010101010101010101010101010110 b
#82
b100010001000100010001000100010 "
b10111011101110111011101110111011 B
b1000100010001000100010001000101 b
#83
b10001000100010001000100010001 "
b10101010101010101010101010101010 B
b1010101010101010101010101010110 b
#84
b100010001000100010001000100010 "
b10111011101110111011101110111011 B
b1000100010001000100010001000101 b
#85
b10001000100010001000100010001 "
b10101010101010101010101010101010 B
b1010101010101010101010101010110 b
#86
b100010001000100010001000100010 "
b10111011101110111011101110111011 B
b1000100010001000100010001000101 b
#87
b10001000100010001000100010001 "
b10101010101010101010101010101010 B
b1010101010101010101010101010110 b
#88
b100010001000100010001000100010 "
b10111011101110111011101110111011 B
b1000100010001000100010001000101 b
#89
b10001000100010001000100010001 "
b10101010101010101010101010101010 B
b1010101010101010101010101010110 b
#90
b100010001000100010001000100010 "
b10111011101110111011101110111011 B
b1000100010001000100010001000101 b
#91
b10001000100010001000100010001 "
b10101010101010101010101010101010 B
b1010101010101010101010101010110 b
#92
b100010001000100010001000100010 "
b10111011101110111011101110111011 B
b1000100010001000100010001000101 b
#93
b10001000100010001000100010001 "
b10101010101010101010101010101010 B
b1010101010101010101010101010110 b
#94
b100010001000100010001000100010 "
b10111011101110111011101110111011 B
b1000100010001000100010001000101 b
#95
b10001000100010001000100010001 "
b10101010101010101010101010101010 B
b1010101010101010101010101010110 b
#96
b100010001000100010001000100010 "
b10111011101110111011101110111011 B
b1000100010001000100010001000101 b
#97
b10001000100010001000100010001 "
b10101010101010101010101010101010 B
b1010101010101010101010101010110 b
#98
b100010001000100010001000100010 "
b10111011101110111011101110111011 B
b1000100010001000100010001000101 b
#99
b10001000100010001000100010001 "
b10101010101010101010101010101010 B
b1010101010101010101010101010110 b
#100
b100010001000100010001000100010 "
b10111011101110111011101110111011 B
b1000100010001000100010001000101 b
#101
b10001000100010001000100010001 "
b10101010101010101010101010101010 B
b1010101010101010101010101010110 b
#102
b100010001000100010001000100010 "
b10111011101110111011101110111011 B
b1000100010001000100010001000101 b
#103
b10001000100010001000100010001 "
b10101010101010101010101010101010 B
b1010101010101010101010101010110 b
#104
b100010001000100010001000100010 "
b10111011101110111011101110111011 B
b1000100010001000100010001000101 b
#105
b10001000100010001000100010001 "
b10101010101010101010101010101010 B
b1010101010101010101010101010110 b
#106
b100010001000100010001000100010 "
b10111011101110111011101110111011 B
b1000100010001000100010001000101 b
#107
b10001000100010001000100010001 "
b10101010101010101010101010101010 B
b1010101010101010101010101010110 b
#108
b100010001000100010001000100010 "
b10111011101110111011101110111011 B
b1000100010001000100010001000101 b
#109
b10001000100010001000100010001 "
b10101010101010101010101010101010 B
b1010101010101010101010101010110 b
#110
b100010001000100010001000100010 "
b10111011101110111011101110111011 B
b1000100010001000100010001000101 b
#111
b10001000100010001000100010001 "
b10101010101010101010101010101010 B
b1010101010101010101010101010110 b
#112
b100010001000100010001000100010 "
b10111011101110111011101110111011 B
b1000100010001000100010001000101 b
#113
b10001000100010001000100010001 "
b10101010101010101010101010101010 B
b1010101010101010101010101010110 b
#114
b100010001000100010001000100010 "
b10111011101110111011101110111011 B
b1000100010001000100010001000101 b
#115
b10001000100010001000100010001 "
b10101010101010101010101010101010 B
b1010101010101010101010101010110 b
#116
b100010001000100010001000100010 "
b10111011101110111011101110111011 B
b1000100010001000100010001000101 b
#117
b10001000100010001000100010001 "
b10101010101010101010101010101010 B
b1010101010101010101010101010110 b
#118
b100010001000100010001000100010 "
b10111011101110111011101110111011 B
b1000100010001000100010001000101 b
#119
b10001000100010001000100010001 "
b10101010101010101010101010101010 B
b1010101010101010101010101010110 b
#120
b100010001000100010001000100010 "
b10111011101110111011101110111011 B
b1000100010001000100010001000101 b
#121
b10001000100010001000100010001 "
b10101010101010101010101010101010 B
b1010101010101010101010101010110 b
#122
b100010001000100010001000100010 "
b10111011101110111011101110111011 B
b1000100010001000100010001000101 b
#123
b10001000100010001000100010001 "
b10101010101010101010101010101010 B
b1010101010101010101010101010110 b
#124
b100010001000100010001000100010 "
b10111011101110111011101110111011 B
b1000100010001000100010001000101 b
#125
b10001000100010001000100010001 "
b10101010101010101010101010101010 B
b1010101010101010101010101010110 b
#126
b100010001000100010001000100010 "
b10111011101110111011101110111011 B
b1000100010001000100010001000101 b
#127
b10001000100010001000100010001 "
b10101010101010101010101010101010 B
b1010101010101010101010101010110 b
#128
b100010001000100010001000100010 "
b10111011101110111011101110111011 B
b1000100010001000100010001000101 b
#129
b10001000100010001000100010001 "
b10101010101010101010101010101010 B
b1010101010101010101010101010110 b
#130
b100010001000100010001000100010 "
b10111011101110111011101110111011 B
b1000100010001000100010001000101 b
#131
b10001000100010001000100010001 "
b10101010101010101010101010101010 B
b1010101010101010101010101010110 b
#132
b100010001000100010001000100010 "
b10111011101110111011101110111011 B
b1000100010001000100010001000101 b
#133
b10001000100010001000100010001 "
b10101010101010101010101010101010 B
b1010101010101010101010101010110 b
#134
b100010001000100010001000100010 "
b10111011101110111011101110111011 B
b1000100010001000100010001000101 b
#135
b10001000100010001000100010001 "
b10101010101010101010101010101010 B
b1010101010101010101010101010110 b
#136
b100010001000100010001000100010 "
b10111011101110111011101110111011 B
b1000100010001000100010001000101 b
#137
b10001000100010001000100010001 "
b10101010101010101010101010101010 B
b1010101010101010101010101010110 b
#138
b100010001000100010001000100010 "
b10111011101110111011101110111011 B
b1000100010001000100010001000101 b
#139
b10001000100010001000100010001 "
b10101010101010101010101010101010 B
b1010101010101010101010101010110 b
#140
b100010001000100010001000100010 "
b10111011101110111011101110111011 B
b1000100010001000100010001000101 b
#141
b10001000100010001000100010001 "
b10101010101010101010101010101010 B
b1010101010101010101010101010110 b
#142
b100010001000100010001000100010 "
b10111011101110111011101110111011 B
b1000100010001000100010001000101 b
#143
b10001000100010001000100010001 "
b10101010101010101010101010101010 B
b1010101010101010101010101010110 b
#144
b100010001000100010001000100010 "
b10111011101110111011101110111011 B
b1000100010001000100010001000101 b
#145
b10001000100010001000100010001 "
b10101010101010101010101010101010 B
b1010101010101010101010101010110 b
#146
b100010001000100010001000100010 "
b10111011101110111011101110111011 B
b1000100010001000100010001000101 b
#147
b10001000100010001000100010001 "
b10101010101010101010101010101010 B
b1010101010101010101010101010110 b
#148
b100010001000100010001000100010 "
b10111011101110111011101110111011 B
b1000100010001000100010001000101 b
#149
b10001000100010001000100010001 "
b10101010101010101010101010101010 B
b1010101010101010101010101010110 b
#150
b100010001000100010001000100010 "
b10111011101110111011101110111011 B
b1000100010001000100010001000101 b
#151
b10001000100010001000100010001 "
b10101010101010101010101010101010 B
b1010101010101010101010101010110 b
#152
b100010001000100010001000100010 "
b10111011101110111011101110111011 B
b1000100010001000100010001000101 b
#153
b10001000100010001000100010001 "
b10101010101010101010101010101010 B
b1010101010101010101010101010110 b
#154
b100010001000100010001000100010 "
b10111011101110111011101110111011 B
b1000100010001000100010001000101 b
#155
b10001000100010001000100010001 "
b10101010101010101010101010101010 B
b1010101010101010101010101010110 b
#156
b100010001000100010001000100010 "
b10111011101110111011101110111011 B
b1000100010001000100010001000101 b
#157
b10001000100010001000100010001 "
b10101010101010101010101010101010 B
b1010101010101010101010101010110 b
#158
b100010001000100010001000100010 "
b10111011101110111011101110111011 B
b1000100010001000100010001000101 b
#159
b10001000100010001000100010001 "
b10101010101010101010101010101010 B
b1010101010101010101010101010110 b
#160
b100010001000100010001000100010 "
b10111011101110111011101110111011 B
b1000100010001000100010001000101 b
#161
b10001000100010001000100010001 "
b10101010101010101010101010101010 B
b1010101010101010101010101010110 b
#162
b100010001000100010001000100010 "
b10111011101110111011101110111011 B
b1000100010001000100010001000101 b
#163
b10001000100010001000100010001 "
b10101010101010101010101010101010 B
b1010101010101010101010101010110 b
#164
b100010001000100010001000100010 "
b10111011101110111011101110111011 B
b1000100010001000100010001000101 b
#165
b10001000100010001000100010001 "
b10101010101010101010101010101010 B
b1010101010101010101010101010110 b
#166
b100010001000100010001000100010 "
b10111011101110111011101110111011 B
b1000100010001000100010001000101 b
#167
b10001000100010001000100010001 "
b10101010101010101010101010101010 B
b1010101010101010101010101010110 b
#168
b100010001000100010001000100010 "
b10111011101110111011101110111011 B
b1000100010001000100010001000101 b
#169
b10001000100010001000100010001 "
b10101010101010101010101010101010 B
b1010101010101010101010101010110 b
#170
b100010001000100010001000100010 "
b10111011101110111011101110111011 B
b1000100010001000100010001000101 b
#171
b10001000100010001000100010001 "
b10101010101010101010101010101010 B
b1010101010101010101010101010110 b
#172
b100010001000100010001000100010 "
b10111011101110111011101110111011 B
b1000100010001000100010001000101 b
#173
b10001000100010001000100010001 "
b10101010101010101010101010101010 B
b1010101010101010101010101010110 b
#174
b100010001000100010001000100010 "
b10111011101110111011101110111011 B
b1000100010001000100010001000101 b
#175
b10001000100010001000100010001 "
b10101010101010101010101010101010 B
b1010101010101010101010101010110 b
#176
b100010001000100010001000100010 "
b10111011101110111011101110111011 B
b1000100010001000100010001000101 b
#177
b10001000100010001000100010001 "
b10101010101010101010101010101010 B
b1010101010101010101010101010110 b
#178
b100010001000100010001000100010 "
b10111011101110111011101110111011 B
b1000100010001000100010001000101 b
#179
b10001000100010001000100010001 "
b10101010101010101010101010101010 B
b1010101010101010101010101010110 b
#180
b100010001000100010001000100010 "
b10111011101110111011101110111011 B
b1000100010001000100010001000101 b
#181
b10001000100010001000100010001 "
b10101010101010101010101010101010 B
b1010101010101010101010101010110 b
#182
b100010001000100010001000100010 "
b10111011101110111011101110111011 B
b1000100010001000100010001000101 b
#183
b10001000100010001000100010001 "
b10101010101010101010101010101010 B
b1010101010101010101010101010110 b
#184
b100010001000100010001000100010 "
b10111011101110111011101110111011 B
b1000100010001000100010001000101 b
#185
b10001000100010001000100010001 "
b10101010101010101010101010101010 B
b1010101010101010101010101010110 b
#186
b100010001000100010001000100010 "
b10111011101110111011101110111011 B
b1000100010001000100010001000101 b
#187
b10001000100010001000100010001 "
b10101010101010101010101010101010 B
b1010101010101010101010101010110 b
#188
b100010001000100010001000100010 "
b10111011101110111011101110111011 B
b1000100010001000100010001000101 b
#189
b10001000100010001000100010001 "
b10101010101010101010101010101010 B
b1010101010101010101010101010110 b
#190
b100010001000100010001000100010 "
b10111011101110111011101110111011 B
b1000100010001000100010001000101 b
#191
b10001000100010001000100010001 "
b10101010101010101010101010101010 B
b1010101010101010101010101010110 b
#192
b100010001000100010001000100010 "
b10111011101110111011101110111011 B
b1000100010001000100010001000101 b
#193
b10001000100010001000100010001 "
b10101010101010101010101010101010 B
b1010101010101010101010101010110 b
#194
b100010001000100010001000100010 "
b10111011101110111011101110111011 B
b1000100010001000100010001000101 b
#195
b10001000100010001000100010001 "
b10101010101010101010101010101010 B
b1010101010101010101010101010110 b
#196
b100010001000100010001000100010 "
b10111011101110111011101110111011 B
b1000100010001000100010001000101 b
#197
b10001000100010001000100010001 "
b10101010101010101010101010101010 B
b1010101010101010101010101010110 b
#198
b100010001000100010001000100010 "
b10111011101110111011101110111011 B
b1000100010001000100010001000101 b
#199
b10001000100010001000100010001 "
b10101010101010101010101010101010 B
b1010101010101010101010101010110 b
#200
b100010001000100010001000100010 "
b10111011101110111011101110111011 B
b1000100010001000100010001000101 b
#201
b10001000100010001000100010001 "
b10101010101010101010101010101010 B
b1010101010101010101010101010110 b
#202
b100010001000100010001000100010 "
b10111011101110111011101110111011 B
b1000100010001000100010001000101 b
#203
b10001000100010001000100010001 "
b10101010101010101010101010101010 B
b1010101010101010101010101010110 b
#204
b100010001000100010001000100010 "
b10111011101110111011101110111011 B
b1000100010001000100010001000101 b
#205
b10001000100010001000100010001 "
b10101010101010101010101010101010 B
b1010101010101010101010101010110 b
#206
b100010001000100010001000100010 "
b10111011101110111011101110111011 B
b1000100010001000100010001000101 b
#207
b10001000100010001000100010001 "
b10101010101010101010101010101010 B
b1010101010101010101010101010110 b
#208
b100010001000100010001000100010 "
b10111011101110111011101110111011 B
b1000100010001000100010001000101 b
#209
b10001000100010001000100010001 "
b10101010101010101010101010101010 B
b1010101010101010101010101010110 b
#210
b100010001000100010001000100010 "
b10111011101110111011101110111011 B
b1000100010001000100010001000101 b
#211
b10001000100010001000100010001 "
b10101010101010101010101010101010 B
b1010101010101010101010101010110 b
#212
b100010001000100010001000100010 "
b10111011101110111011101110111011 B
b1000100010001000100010001000101 b
#213
b10001000100010001000100010001 "
b10101010101010101010101010101010 B
b1010101010101010101010101010110 b
#214
b100010001000100010001000100010 "
b10111011101110111011101110111011 B
b1000100010001000100010001000101 b
#215
b10001000100010001000100010001 "
b10101010101010101010101010101010 B
b1010101010101010101010101010110 b
#216
b100010001000100010001000100010 "
b10111011101110111011101110111011 B
b1000100010001000100010001000101 b
#217
b10001000100010001000100010001 "
b10101010101010101010101010101010 B
b1010101010101010101010101010110 b
#218
b100010001000100010001000100010 "
b10111011101110111011101110111011 B
b1000100010001000100010001000101 b
#219
b10001000100010001000100010001 "
b10101010101010101010101010101010 B
b1010101010101010101010101010110 b
#220
b100010001000100010001000100010 "
b10111011101110111011101110111011 B
b1000100010001000100010001000101 b
#221
b10001000100010001000100010001 "
b10101010101010101010101010101010 B
b1010101010101010101010101010110 b
#222
b100010001000100010001000100010 "
b10111011101110111011101110111011 B
b1000100010001000100010001000101 b
#223
b10001000100010001000100010001 "
b10101010101010101010101010101010 B
b1010101010101010101010101010110 b
#224
b100010001000100010001000100010 "
b10111011101110111011101110111011 B
b1000100010001000100010001000101 b
#225
b10001000100010001000100010001 "
b10101010101010101010101010101010 B
b1010101010101010101010101010110 b
#226
b100010001000100010001000100010 "
b10111011101110111011101110111011 B
b1000100010001000100010001000101 b
#227
b10001000100010001000100010001 "
b10101010101010101010101010101010 B
b1010101010101010101010101010110 b
#228
b100010001000100010001000100010 "
b10111011101110111011101110111011 B
b1000100010001000100010001000101 b
#229
b10001000100010001000100010001 "
b10101010101010101010101010101010 B
b1010101010101010101010101010110 b
#230
b100010001000100010001000100010 "
b10111011101110111011101110111011 B
b1000100010001000100010001000101 b
#231
b10001000100010001000100010001 "
b10101010101010101010101010101010 B
b1010101010101010101010101010110 b
#232
b100010001000100010001000100010 "
b10111011101110111011101110111011 B
b1000100010001000100010001000101 b
#233
b10001000100010001000100010001 "
b10101010101010101010101010101010 B
b1010101010101010101010101010110 b
#234
b100010001000100010001000100010 "
b10111011101110111011101110111011 B
b1000100010001000100010001000101 b
#235
b10001000100010001000100010001 "
b10101010101010101010101010101010 B
b1010101010101010101010101010110 b
#236
b100010001000100010001000100010 "
b10111011101110111011101110111011 B
b1000100010001000100010001000101 b
#237
b10001000100010001000100010001 "
b10101010101010101010101010101010 B
b1010101010101010101010101010110 b
#238
b100010001000100010001000100010 "
b10111011101110111011101110111011 B
b1000100010001000100010001000101 b
#239
b10001000100010001000100010001 "
b10101010101010101010101010101010 B
b1010101010101010101010101010110 b
#240
b100010001000100010001000100010 "
b10111011101110111011101110111011 B
b1000100010001000100010001000101 b
#241
b10001000100010001000100010001 "
b10101010101010101010101010101010 B
b1010101010101010101010101010110 b
#242
b100010001000100010001000100010 "
b10111011101110111011101110111011 B
b1000100010001000100010001000101 b
#243
b10001000100010001000100010001 "
b10101010101010101010101010101010 B
b1010101010101010101010101010110 b
#244
b100010001000100010001000100010 "
b10111011101110111011101110111011 B
b1000100010001000100010001000101 b
#245
b10001000100010001000100010001 "
b10101010101010101010101010101010 B
b1010101010101010101010101010110 b
#246
b100010001000100010001000100010 "
b10111011101110111011101110111011 B
b1000100010001000100010001000101 b
#247
b10001000100010001000100010001 "
b10101010101010101010101010101010 B
b1010101010101010101010101010110 b
#248
b100010001000100010001000100010 "
b10111011101110111011101110111011 B
b1000100010001000100010001000101 b
#249
b10001000100010001000100010001 "
b10101010101010101010101010101010 B
b1010101010101010101010101010110 b
#250
b100010001000100010001000100010 "
b10111011101110111011101110111011 B
b1000100010001000100010001000101 b
#251
b10001000100010001000100010001 "
b10101010101010101010101010101010 B
b1010101010101010101010101010110 b
#252
b100010001000100010001000100010 "
b10111011101110111011101110111011 B
b1000100010001000100010001000101 b
#253
b10001000100010001000100010001 "
b10101010101010101010101010101010 B
b1010101010101010101010101010110 b
#254
b100010001000100010001000100010 "
b10111011101110111011101110111011 B
b1000100010001000100010001000101 b
#255
b10001000100010001000100010001 "
b10101010101010101010101010101010 B
b1010101010101010101010101010110 b
#256
b100010001000100010001000100010 "
b10111011101110111011101110111011 B
b1000100010001000100010001000101 b
#257
b10001000100010001000100010001 "
b10101010101010101010101010101010 B
b1010101010101010101010101010110 b
#258
b100010001000100010001000100010 "
b10111011101110111011101110111011 B
b1000100010001000100010001000101 b
#259
b10001000100010001000100010001 "
b10101010101010101010101010101010 B
b1010101010101010101010101010110 b
#260
b100010001000100010001000100010 "
b10111011101110111011101110111011 B
b1000100010001000100010001000101 b
#261
b10001000100010001000100010001 "
b10101010101010101010101010101010 B
b1010101010101010101010101010110 b
#262
b100010001000100010001000100010 "
b10111011101110111011101110111011 B
b1000100010001000100010001000101 b
#263
b10001000100010001000100010001 "
b10101010101010101010101010101010 B
b1010101010101010101010101010110 b
#264
b100010001000100010001000100010 "
b10111011101110111011101110111011 B
b1000100010001000100010001000101 b
#265
b10001000100010001000100010001 "
b10101010101010101010101010101010 B
b1010101010101010101010101010110 b
#266
b100010001000100010001000100010 "
b10111011101110111011101110111011 B
b1000100010001000100010001000101 b
#267
b10001000100010001000100010001 "
b10101010101010101010101010101010 B
b1010101010101010101010101010110 b
#268
b100010001000100010001000100010 "
b10111011101110111011101110111011 B
b1000100010001000100010001000101 b
#269
b10001000100010001000100010001 "
b10101010101010101010101010101010 B
b1010101010101010101010101010110 b
#270
b100010001000100010001000100010 "
b10111011101110111011101110111011 B
b1000100010001000100010001000101 b
#271
b10001000100010001000100010001 "
b10101010101010101010101010101010 B
b1010101010101010101010101010110 b
#272
b100010001000100010001000100010 "
b10111011101110111011101110111011 B
b1000100010001000100010001000101 b
#273
b10001000100010001000100010001 "
b10101010101010101010101010101010 B
b1010101010101010101010101010110 b
#274
b100010001000100010001000100010 "
b10111011101110111011101110111011 B
b1000100010001000100010001000101 b
#275
b10001000100010001000100010001 "
b10101010101010101010101010101010 B
b1010101010101010101010101010110 b
#276
b100010001000100010001000100010 "
b10111011101110111011101110111011 B
b1000100010001000100010001000101 b
#277
b10001000100010001000100010001 "
b10101010101010101010101010101010 B
b1010101010101010101010101010110 b
#278
b100010001000100010001000100010 "
b10111011101110111011101110111011 B
b1000100010001000100010001000101 b
#279
b10001000100010001000100010001 "
b10101010101010101010101010101010 B
b1010101010101010101010101010110 b
#280
b100010001000100010001000100010 "
b10111011101110111011101110111011 B
b1000100010001000100010001000101 b
#281
b10001000100010001000100010001 "
b10101010101010101010101010101010 B
b1010101010101010101010101010110 b
#282
b100010001000100010001000100010 "
b10111011101110111011101110111011 B
b1000100010001000100010001000101 b
#283
b10001000100010001000100010001 "
b10101010101010101010101010101010 B
b1010101010101010101010101010110 b
#284
b100010001000100010001000100010 "
b10111011101110111011101110111011 B
b1000100010001000100010001000101 b
#285
b10001000100010001000100010001 "
b10101010101010101010101010101010 B
b1010101010101010101010101010110 b
#286
b100010001000100010001000100010 "
b10111011101110111011101110111011 B
b1000100010001000100010001000101 b
#287
b10001000100010001000100010001 "
b10101010101010101010101010101010 B
b1010101010101010101010101010110 b
#288
b100010001000100010001000100010 "
b10111011101110111011101110111011 B
b1000100010001000100010001000101 b
#289
b10001000100010001000100010001 "
b10101010101010101010101010101010 B
b1010101010101010101010101010110 b
#290
b100010001000100010001000100010 "
b10111011101110111011101110111011 B
b1000100010001000100010001000101 b
#291
b10001000100010001000100010001 "
b10101010101010101010101010101010 B
b1010101010101010101010101010110 b
#292
b100010001000100010001000100010 "
b10111011101110111011101110111011 B
b1000100010001000100010001000101 b
#293
b10001000100010001000100010001 "
b10101010101010101010101010101010 B
b1010101010101010101010101010110 b
#294
b100010001000100010001000100010 "
b10111011101110111011101110111011 B
b1000100010001000100010001000101 b
#295
b10001000100010001000100010001 "
b10101010101010101010101010101010 B
b1010101010101010101010101010110 b
#296
b100010001000100010001000100010 "
b10111011101110111011101110111011 B
b1000100010001000100010001000101 b
#297
b10001000100010001000100010001 "
b10101010101010101010101010101010 B
b1010101010101010101010101010110 b
#298
b100010001000100010001000100010 "
b10111011101110111011101110111011 B
b1000100010001000100010001000101 b
#299
b10001000100010001000100010001 "
b10101010101010101010101010101010 B
b1010101010101010101010101010110 b
#300
b100010001000100010001000100010 "
b10111011101110111011101110111011 B
b1000100010001000100010001000101 b
#301
b10001000100010001000100010001 "
b10101010101010101010101010101010 B
b1010101010101010101010101010110 b
#302
b100010001000100010001000100010 "
b10111011101110111011101110111011 B
b1000100010001000100010001000101 b
#303
b10001000100010001000100010001 "
b10101010101010101010101010101010 B
b1010101010101010101010101010110 b
#304
b100010001000100010001000100010 "
b10111011101110111011101110111011 B
b1000100010001000100010001000101 b
#305
b10001000100010001000100010001 "
b10101010101010101010101010101010 B
b1010101010101010101010101010110 b
#306
b100010001000100010001000100010 "
b10111011101110111011101110111011 B
b1000100010001000100010001000101 b
#307
b10001000100010001000100010001 "
b10101010101010101010101010101010 B
b1010101010101010101010101010110 b
#308
b100010001000100010001000100010 "
b10111011101110111011101110111011 B
b1000100010001000100010001000101 b
#309
b10001000100010001000100010001 "
b10101010101010101010101010101010 B
b1010101010101010101010101010110 b
#310
b100010001000100010001000100010 "
b10111011101110111011101110111011 B
b1000100010001000100010001000101 b
#311
b10001000100010001000100010001 "
b10101010101010101010101010101010 B
b1010101010101010101010101010110 b
