pulsar_devkit/simple_examples/minimal_HLSArray_BRAM_ILA/.Xil/Vivado-25991-nucts01/hw_ila_data_1/zip_work/waveform.vcd
$date
        2017-Oct-17 17:38:27
$end
$version
        Vivado v2016.4 (64-bit)
$end
$timescale
        1ps
$end
$scope module dut $end
$var reg 32 " my_test_algo/bram_to_hls [63:32] $end
$var reg 32 B my_test_algo/bram_to_hls_1 [31:0] $end
$var reg 32 b my_test_algo/hls_to_ila [31:0] $end
$var reg 1 $" _TRIGGER $end
$var reg 1 %" _WINDOW $end
$var reg 1 &" _GAP $end
$upscope $end
$enddefinitions $end
#0
$dumpvars
b100010001000100010001000100010 "
b10111011101110111011101110111011 B
b0 b
1$"
1%"
0&"
$end
#1
b10001000100010001000100010001 "
b10101010101010101010101010101010 B
#2
b100010001000100010001000100010 "
b10111011101110111011101110111011 B
#3
b10001000100010001000100010001 "
b10101010101010101010101010101010 B
#4
b100010001000100010001000100010 "
b10111011101110111011101110111011 B
#5
b10001000100010001000100010001 "
b10101010101010101010101010101010 B
#6
b100010001000100010001000100010 "
b10111011101110111011101110111011 B
#7
b10001000100010001000100010001 "
b10101010101010101010101010101010 B
#8
b100010001000100010001000100010 "
b10111011101110111011101110111011 B
#9
b10001000100010001000100010001 "
b10101010101010101010101010101010 B
#10
b100010001000100010001000100010 "
b10111011101110111011101110111011 B
#11
b10001000100010001000100010001 "
b10101010101010101010101010101010 B
#12
b100010001000100010001000100010 "
b10111011101110111011101110111011 B
#13
b10001000100010001000100010001 "
b10101010101010101010101010101010 B
#14
b100010001000100010001000100010 "
b10111011101110111011101110111011 B
#15
b10001000100010001000100010001 "
b10101010101010101010101010101010 B
#16
b100010001000100010001000100010 "
b10111011101110111011101110111011 B
#17
b10001000100010001000100010001 "
b10101010101010101010101010101010 B
#18
b100010001000100010001000100010 "
b10111011101110111011101110111011 B
#19
b10001000100010001000100010001 "
b10101010101010101010101010101010 B
#20
b100010001000100010001000100010 "
b10111011101110111011101110111011 B
#21
b10001000100010001000100010001 "
b10101010101010101010101010101010 B
#22
b100010001000100010001000100010 "
b10111011101110111011101110111011 B
#23
b10001000100010001000100010001 "
b10101010101010101010101010101010 B
#24
b100010001000100010001000100010 "
b10111011101110111011101110111011 B
#25
b10001000100010001000100010001 "
b10101010101010101010101010101010 B
#26
b100010001000100010001000100010 "
b10111011101110111011101110111011 B
#27
b10001000100010001000100010001 "
b10101010101010101010101010101010 B
#28
b100010001000100010001000100010 "
b10111011101110111011101110111011 B
#29
b10001000100010001000100010001 "
b10101010101010101010101010101010 B
#30
b100010001000100010001000100010 "
b10111011101110111011101110111011 B
#31
b10001000100010001000100010001 "
b10101010101010101010101010101010 B
#32
b100010001000100010001000100010 "
b10111011101110111011101110111011 B
#33
b10001000100010001000100010001 "
b10101010101010101010101010101010 B
#34
b100010001000100010001000100010 "
b10111011101110111011101110111011 B
#35
b10001000100010001000100010001 "
b10101010101010101010101010101010 B
#36
b100010001000100010001000100010 "
b10111011101110111011101110111011 B
#37
b10001000100010001000100010001 "
b10101010101010101010101010101010 B
#38
b100010001000100010001000100010 "
b10111011101110111011101110111011 B
#39
b10001000100010001000100010001 "
b10101010101010101010101010101010 B
#40
b100010001000100010001000100010 "
b10111011101110111011101110111011 B
#41
b10001000100010001000100010001 "
b10101010101010101010101010101010 B
#42
b100010001000100010001000100010 "
b10111011101110111011101110111011 B
#43
b10001000100010001000100010001 "
b10101010101010101010101010101010 B
#44
b100010001000100010001000100010 "
b10111011101110111011101110111011 B
#45
b10001000100010001000100010001 "
b10101010101010101010101010101010 B
#46
b100010001000100010001000100010 "
b10111011101110111011101110111011 B
#47
b10001000100010001000100010001 "
b10101010101010101010101010101010 B
#48
b100010001000100010001000100010 "
b10111011101110111011101110111011 B
#49
b10001000100010001000100010001 "
b10101010101010101010101010101010 B
#50
b100010001000100010001000100010 "
b10111011101110111011101110111011 B
#51
b10001000100010001000100010001 "
b10101010101010101010101010101010 B
#52
b100010001000100010001000100010 "
b10111011101110111011101110111011 B
#53
b10001000100010001000100010001 "
b10101010101010101010101010101010 B
#54
b100010001000100010001000100010 "
b10111011101110111011101110111011 B
#55
b10001000100010001000100010001 "
b10101010101010101010101010101010 B
#56
b100010001000100010001000100010 "
b10111011101110111011101110111011 B
#57
b10001000100010001000100010001 "
b10101010101010101010101010101010 B
#58
b100010001000100010001000100010 "
b10111011101110111011101110111011 B
#59
b10001000100010001000100010001 "
b10101010101010101010101010101010 B
#60
b100010001000100010001000100010 "
b10111011101110111011101110111011 B
#61
b10001000100010001000100010001 "
b10101010101010101010101010101010 B
#62
b100010001000100010001000100010 "
b10111011101110111011101110111011 B
#63
b10001000100010001000100010001 "
b10101010101010101010101010101010 B
#64
b100010001000100010001000100010 "
b10111011101110111011101110111011 B
#65
b10001000100010001000100010001 "
b10101010101010101010101010101010 B
#66
b100010001000100010001000100010 "
b10111011101110111011101110111011 B
#67
b10001000100010001000100010001 "
b10101010101010101010101010101010 B
#68
b100010001000100010001000100010 "
b10111011101110111011101110111011 B
#69
b10001000100010001000100010001 "
b10101010101010101010101010101010 B
#70
b100010001000100010001000100010 "
b10111011101110111011101110111011 B
#71
b10001000100010001000100010001 "
b10101010101010101010101010101010 B
#72
b100010001000100010001000100010 "
b10111011101110111011101110111011 B
#73
b10001000100010001000100010001 "
b10101010101010101010101010101010 B
#74
b100010001000100010001000100010 "
b10111011101110111011101110111011 B
#75
b10001000100010001000100010001 "
b10101010101010101010101010101010 B
#76
b100010001000100010001000100010 "
b10111011101110111011101110111011 B
#77
b10001000100010001000100010001 "
b10101010101010101010101010101010 B
#78
b100010001000100010001000100010 "
b10111011101110111011101110111011 B
#79
b10001000100010001000100010001 "
b10101010101010101010101010101010 B
#80
b100010001000100010001000100010 "
b10111011101110111011101110111011 B
#81
b10001000100010001000100010001 "
b10101010101010101010101010101010 B
#82
b100010001000100010001000100010 "
b10111011101110111011101110111011 B
#83
b10001000100010001000100010001 "
b10101010101010101010101010101010 B
#84
b100010001000100010001000100010 "
b10111011101110111011101110111011 B
#85
b10001000100010001000100010001 "
b10101010101010101010101010101010 B
#86
b100010001000100010001000100010 "
b10111011101110111011101110111011 B
#87
b10001000100010001000100010001 "
b10101010101010101010101010101010 B
#88
b100010001000100010001000100010 "
b10111011101110111011101110111011 B
#89
b10001000100010001000100010001 "
b10101010101010101010101010101010 B
#90
b100010001000100010001000100010 "
b10111011101110111011101110111011 B
#91
b10001000100010001000100010001 "
b10101010101010101010101010101010 B
#92
b100010001000100010001000100010 "
b10111011101110111011101110111011 B
#93
b10001000100010001000100010001 "
b10101010101010101010101010101010 B
#94
b100010001000100010001000100010 "
b10111011101110111011101110111011 B
#95
b10001000100010001000100010001 "
b10101010101010101010101010101010 B
#96
b100010001000100010001000100010 "
b10111011101110111011101110111011 B
#97
b10001000100010001000100010001 "
b10101010101010101010101010101010 B
#98
b100010001000100010001000100010 "
b10111011101110111011101110111011 B
#99
b10001000100010001000100010001 "
b10101010101010101010101010101010 B
#100
b100010001000100010001000100010 "
b10111011101110111011101110111011 B
#101
b10001000100010001000100010001 "
b10101010101010101010101010101010 B
#102
b100010001000100010001000100010 "
b10111011101110111011101110111011 B
#103
b10001000100010001000100010001 "
b10101010101010101010101010101010 B
#104
b100010001000100010001000100010 "
b10111011101110111011101110111011 B
#105
b10001000100010001000100010001 "
b10101010101010101010101010101010 B
#106
b100010001000100010001000100010 "
b10111011101110111011101110111011 B
#107
b10001000100010001000100010001 "
b10101010101010101010101010101010 B
#108
b100010001000100010001000100010 "
b10111011101110111011101110111011 B
#109
b10001000100010001000100010001 "
b10101010101010101010101010101010 B
#110
b100010001000100010001000100010 "
b10111011101110111011101110111011 B
#111
b10001000100010001000100010001 "
b10101010101010101010101010101010 B
#112
b100010001000100010001000100010 "
b10111011101110111011101110111011 B
#113
b10001000100010001000100010001 "
b10101010101010101010101010101010 B
#114
b100010001000100010001000100010 "
b10111011101110111011101110111011 B
#115
b10001000100010001000100010001 "
b10101010101010101010101010101010 B
#116
b100010001000100010001000100010 "
b10111011101110111011101110111011 B
#117
b10001000100010001000100010001 "
b10101010101010101010101010101010 B
#118
b100010001000100010001000100010 "
b10111011101110111011101110111011 B
#119
b10001000100010001000100010001 "
b10101010101010101010101010101010 B
#120
b100010001000100010001000100010 "
b10111011101110111011101110111011 B
#121
b10001000100010001000100010001 "
b10101010101010101010101010101010 B
#122
b100010001000100010001000100010 "
b10111011101110111011101110111011 B
#123
b10001000100010001000100010001 "
b10101010101010101010101010101010 B
#124
b100010001000100010001000100010 "
b10111011101110111011101110111011 B
#125
b10001000100010001000100010001 "
b10101010101010101010101010101010 B
#126
b100010001000100010001000100010 "
b10111011101110111011101110111011 B
#127
b10001000100010001000100010001 "
b10101010101010101010101010101010 B
#128
b100010001000100010001000100010 "
b10111011101110111011101110111011 B
#129
b10001000100010001000100010001 "
b10101010101010101010101010101010 B
#130
b100010001000100010001000100010 "
b10111011101110111011101110111011 B
#131
b10001000100010001000100010001 "
b10101010101010101010101010101010 B
#132
b100010001000100010001000100010 "
b10111011101110111011101110111011 B
#133
b10001000100010001000100010001 "
b10101010101010101010101010101010 B
#134
b100010001000100010001000100010 "
b10111011101110111011101110111011 B
#135
b10001000100010001000100010001 "
b10101010101010101010101010101010 B
#136
b100010001000100010001000100010 "
b10111011101110111011101110111011 B
#137
b10001000100010001000100010001 "
b10101010101010101010101010101010 B
#138
b100010001000100010001000100010 "
b10111011101110111011101110111011 B
#139
b10001000100010001000100010001 "
b10101010101010101010101010101010 B
#140
b100010001000100010001000100010 "
b10111011101110111011101110111011 B
#141
b10001000100010001000100010001 "
b10101010101010101010101010101010 B
#142
b100010001000100010001000100010 "
b10111011101110111011101110111011 B
#143
b10001000100010001000100010001 "
b10101010101010101010101010101010 B
#144
b100010001000100010001000100010 "
b10111011101110111011101110111011 B
#145
b10001000100010001000100010001 "
b10101010101010101010101010101010 B
#146
b100010001000100010001000100010 "
b10111011101110111011101110111011 B
#147
b10001000100010001000100010001 "
b10101010101010101010101010101010 B
#148
b100010001000100010001000100010 "
b10111011101110111011101110111011 B
#149
b10001000100010001000100010001 "
b10101010101010101010101010101010 B
#150
b100010001000100010001000100010 "
b10111011101110111011101110111011 B
#151
b10001000100010001000100010001 "
b10101010101010101010101010101010 B
#152
b100010001000100010001000100010 "
b10111011101110111011101110111011 B
#153
b10001000100010001000100010001 "
b10101010101010101010101010101010 B
#154
b100010001000100010001000100010 "
b10111011101110111011101110111011 B
#155
b10001000100010001000100010001 "
b10101010101010101010101010101010 B
#156
b100010001000100010001000100010 "
b10111011101110111011101110111011 B
#157
b10001000100010001000100010001 "
b10101010101010101010101010101010 B
#158
b100010001000100010001000100010 "
b10111011101110111011101110111011 B
#159
b10001000100010001000100010001 "
b10101010101010101010101010101010 B
#160
b100010001000100010001000100010 "
b10111011101110111011101110111011 B
#161
b10001000100010001000100010001 "
b10101010101010101010101010101010 B
#162
b100010001000100010001000100010 "
b10111011101110111011101110111011 B
#163
b10001000100010001000100010001 "
b10101010101010101010101010101010 B
#164
b100010001000100010001000100010 "
b10111011101110111011101110111011 B
#165
b10001000100010001000100010001 "
b10101010101010101010101010101010 B
#166
b100010001000100010001000100010 "
b10111011101110111011101110111011 B
#167
b10001000100010001000100010001 "
b10101010101010101010101010101010 B
#168
b100010001000100010001000100010 "
b10111011101110111011101110111011 B
#169
b10001000100010001000100010001 "
b10101010101010101010101010101010 B
#170
b100010001000100010001000100010 "
b10111011101110111011101110111011 B
#171
b10001000100010001000100010001 "
b10101010101010101010101010101010 B
#172
b100010001000100010001000100010 "
b10111011101110111011101110111011 B
#173
b10001000100010001000100010001 "
b10101010101010101010101010101010 B
#174
b100010001000100010001000100010 "
b10111011101110111011101110111011 B
#175
b10001000100010001000100010001 "
b10101010101010101010101010101010 B
#176
b100010001000100010001000100010 "
b10111011101110111011101110111011 B
#177
b10001000100010001000100010001 "
b10101010101010101010101010101010 B
#178
b100010001000100010001000100010 "
b10111011101110111011101110111011 B
#179
b10001000100010001000100010001 "
b10101010101010101010101010101010 B
#180
b100010001000100010001000100010 "
b10111011101110111011101110111011 B
#181
b10001000100010001000100010001 "
b10101010101010101010101010101010 B
#182
b100010001000100010001000100010 "
b10111011101110111011101110111011 B
#183
b10001000100010001000100010001 "
b10101010101010101010101010101010 B
#184
b100010001000100010001000100010 "
b10111011101110111011101110111011 B
#185
b10001000100010001000100010001 "
b10101010101010101010101010101010 B
#186
b100010001000100010001000100010 "
b10111011101110111011101110111011 B
#187
b10001000100010001000100010001 "
b10101010101010101010101010101010 B
#188
b100010001000100010001000100010 "
b10111011101110111011101110111011 B
#189
b10001000100010001000100010001 "
b10101010101010101010101010101010 B
#190
b100010001000100010001000100010 "
b10111011101110111011101110111011 B
#191
b10001000100010001000100010001 "
b10101010101010101010101010101010 B
#192
b100010001000100010001000100010 "
b10111011101110111011101110111011 B
#193
b10001000100010001000100010001 "
b10101010101010101010101010101010 B
#194
b100010001000100010001000100010 "
b10111011101110111011101110111011 B
#195
b10001000100010001000100010001 "
b10101010101010101010101010101010 B
#196
b100010001000100010001000100010 "
b10111011101110111011101110111011 B
#197
b10001000100010001000100010001 "
b10101010101010101010101010101010 B
#198
b100010001000100010001000100010 "
b10111011101110111011101110111011 B
#199
b10001000100010001000100010001 "
b10101010101010101010101010101010 B
#200
b100010001000100010001000100010 "
b10111011101110111011101110111011 B
#201
b10001000100010001000100010001 "
b10101010101010101010101010101010 B
#202
b100010001000100010001000100010 "
b10111011101110111011101110111011 B
#203
b10001000100010001000100010001 "
b10101010101010101010101010101010 B
#204
b100010001000100010001000100010 "
b10111011101110111011101110111011 B
#205
b10001000100010001000100010001 "
b10101010101010101010101010101010 B
#206
b100010001000100010001000100010 "
b10111011101110111011101110111011 B
#207
b10001000100010001000100010001 "
b10101010101010101010101010101010 B
#208
b100010001000100010001000100010 "
b10111011101110111011101110111011 B
#209
b10001000100010001000100010001 "
b10101010101010101010101010101010 B
#210
b100010001000100010001000100010 "
b10111011101110111011101110111011 B
#211
b10001000100010001000100010001 "
b10101010101010101010101010101010 B
#212
b100010001000100010001000100010 "
b10111011101110111011101110111011 B
#213
b10001000100010001000100010001 "
b10101010101010101010101010101010 B
#214
b100010001000100010001000100010 "
b10111011101110111011101110111011 B
#215
b10001000100010001000100010001 "
b10101010101010101010101010101010 B
#216
b100010001000100010001000100010 "
b10111011101110111011101110111011 B
#217
b10001000100010001000100010001 "
b10101010101010101010101010101010 B
#218
b100010001000100010001000100010 "
b10111011101110111011101110111011 B
#219
b10001000100010001000100010001 "
b10101010101010101010101010101010 B
#220
b100010001000100010001000100010 "
b10111011101110111011101110111011 B
#221
b10001000100010001000100010001 "
b10101010101010101010101010101010 B
#222
b100010001000100010001000100010 "
b10111011101110111011101110111011 B
#223
b10001000100010001000100010001 "
b10101010101010101010101010101010 B
#224
b100010001000100010001000100010 "
b10111011101110111011101110111011 B
#225
b10001000100010001000100010001 "
b10101010101010101010101010101010 B
#226
b100010001000100010001000100010 "
b10111011101110111011101110111011 B
#227
b10001000100010001000100010001 "
b10101010101010101010101010101010 B
#228
b100010001000100010001000100010 "
b10111011101110111011101110111011 B
#229
b10001000100010001000100010001 "
b10101010101010101010101010101010 B
#230
b100010001000100010001000100010 "
b10111011101110111011101110111011 B
#231
b10001000100010001000100010001 "
b10101010101010101010101010101010 B
#232
b100010001000100010001000100010 "
b10111011101110111011101110111011 B
#233
b10001000100010001000100010001 "
b10101010101010101010101010101010 B
#234
b100010001000100010001000100010 "
b10111011101110111011101110111011 B
#235
b10001000100010001000100010001 "
b10101010101010101010101010101010 B
#236
b100010001000100010001000100010 "
b10111011101110111011101110111011 B
#237
b10001000100010001000100010001 "
b10101010101010101010101010101010 B
#238
b100010001000100010001000100010 "
b10111011101110111011101110111011 B
#239
b10001000100010001000100010001 "
b10101010101010101010101010101010 B
#240
b100010001000100010001000100010 "
b10111011101110111011101110111011 B
#241
b10001000100010001000100010001 "
b10101010101010101010101010101010 B
#242
b100010001000100010001000100010 "
b10111011101110111011101110111011 B
#243
b10001000100010001000100010001 "
b10101010101010101010101010101010 B
#244
b100010001000100010001000100010 "
b10111011101110111011101110111011 B
#245
b10001000100010001000100010001 "
b10101010101010101010101010101010 B
#246
b100010001000100010001000100010 "
b10111011101110111011101110111011 B
#247
b10001000100010001000100010001 "
b10101010101010101010101010101010 B
#248
b100010001000100010001000100010 "
b10111011101110111011101110111011 B
#249
b10001000100010001000100010001 "
b10101010101010101010101010101010 B
#250
b100010001000100010001000100010 "
b10111011101110111011101110111011 B
#251
b10001000100010001000100010001 "
b10101010101010101010101010101010 B
#252
b100010001000100010001000100010 "
b10111011101110111011101110111011 B
#253
b10001000100010001000100010001 "
b10101010101010101010101010101010 B
#254
b100010001000100010001000100010 "
b10111011101110111011101110111011 B
#255
b10001000100010001000100010001 "
b10101010101010101010101010101010 B
#256
b100010001000100010001000100010 "
b10111011101110111011101110111011 B
#257
b10001000100010001000100010001 "
b10101010101010101010101010101010 B
#258
b100010001000100010001000100010 "
b10111011101110111011101110111011 B
#259
b10001000100010001000100010001 "
b10101010101010101010101010101010 B
#260
b100010001000100010001000100010 "
b10111011101110111011101110111011 B
#261
b10001000100010001000100010001 "
b10101010101010101010101010101010 B
#262
b100010001000100010001000100010 "
b10111011101110111011101110111011 B
#263
b10001000100010001000100010001 "
b10101010101010101010101010101010 B
#264
b100010001000100010001000100010 "
b10111011101110111011101110111011 B
#265
b10001000100010001000100010001 "
b10101010101010101010101010101010 B
#266
b100010001000100010001000100010 "
b10111011101110111011101110111011 B
#267
b10001000100010001000100010001 "
b10101010101010101010101010101010 B
#268
b100010001000100010001000100010 "
b10111011101110111011101110111011 B
#269
b10001000100010001000100010001 "
b10101010101010101010101010101010 B
#270
b100010001000100010001000100010 "
b10111011101110111011101110111011 B
#271
b10001000100010001000100010001 "
b10101010101010101010101010101010 B
#272
b100010001000100010001000100010 "
b10111011101110111011101110111011 B
#273
b10001000100010001000100010001 "
b10101010101010101010101010101010 B
#274
b100010001000100010001000100010 "
b10111011101110111011101110111011 B
#275
b10001000100010001000100010001 "
b10101010101010101010101010101010 B
#276
b100010001000100010001000100010 "
b10111011101110111011101110111011 B
#277
b10001000100010001000100010001 "
b10101010101010101010101010101010 B
#278
b100010001000100010001000100010 "
b10111011101110111011101110111011 B
#279
b10001000100010001000100010001 "
b10101010101010101010101010101010 B
#280
b100010001000100010001000100010 "
b10111011101110111011101110111011 B
#281
b10001000100010001000100010001 "
b10101010101010101010101010101010 B
#282
b100010001000100010001000100010 "
b10111011101110111011101110111011 B
#283
b10001000100010001000100010001 "
b10101010101010101010101010101010 B
#284
b100010001000100010001000100010 "
b10111011101110111011101110111011 B
#285
b10001000100010001000100010001 "
b10101010101010101010101010101010 B
#286
b100010001000100010001000100010 "
b10111011101110111011101110111011 B
#287
b10001000100010001000100010001 "
b10101010101010101010101010101010 B
#288
b100010001000100010001000100010 "
b10111011101110111011101110111011 B
#289
b10001000100010001000100010001 "
b10101010101010101010101010101010 B
#290
b100010001000100010001000100010 "
b10111011101110111011101110111011 B
#291
b10001000100010001000100010001 "
b10101010101010101010101010101010 B
#292
b100010001000100010001000100010 "
b10111011101110111011101110111011 B
#293
b10001000100010001000100010001 "
b10101010101010101010101010101010 B
#294
b100010001000100010001000100010 "
b10111011101110111011101110111011 B
#295
b10001000100010001000100010001 "
b10101010101010101010101010101010 B
#296
b100010001000100010001000100010 "
b10111011101110111011101110111011 B
#297
b10001000100010001000100010001 "
b10101010101010101010101010101010 B
#298
b100010001000100010001000100010 "
b10111011101110111011101110111011 B
#299
b10001000100010001000100010001 "
b10101010101010101010101010101010 B
#300
b100010001000100010001000100010 "
b10111011101110111011101110111011 B
#301
b10001000100010001000100010001 "
b10101010101010101010101010101010 B
#302
b100010001000100010001000100010 "
b10111011101110111011101110111011 B
#303
b10001000100010001000100010001 "
b10101010101010101010101010101010 B
#304
b100010001000100010001000100010 "
b10111011101110111011101110111011 B
#305
b10001000100010001000100010001 "
b10101010101010101010101010101010 B
#306
b100010001000100010001000100010 "
b10111011101110111011101110111011 B
#307
b10001000100010001000100010001 "
b10101010101010101010101010101010 B
#308
b100010001000100010001000100010 "
b10111011101110111011101110111011 B
#309
b10001000100010001000100010001 "
b10101010101010101010101010101010 B
#310
b100010001000100010001000100010 "
b10111011101110111011101110111011 B
#311
b10001000100010001000100010001 "
b10101010101010101010101010101010 B
#312
b100010001000100010001000100010 "
b10111011101110111011101110111011 B
#313
b10001000100010001000100010001 "
b10101010101010101010101010101010 B
#314
b100010001000100010001000100010 "
b10111011101110111011101110111011 B
#315
b10001000100010001000100010001 "
b10101010101010101010101010101010 B
#316
b100010001000100010001000100010 "
b10111011101110111011101110111011 B
#317
b10001000100010001000100010001 "
b10101010101010101010101010101010 B
#318
b100010001000100010001000100010 "
b10111011101110111011101110111011 B
#319
b10001000100010001000100010001 "
b10101010101010101010101010101010 B
#320
b100010001000100010001000100010 "
b10111011101110111011101110111011 B
#321
b10001000100010001000100010001 "
b10101010101010101010101010101010 B
#322
b100010001000100010001000100010 "
b10111011101110111011101110111011 B
#323
b10001000100010001000100010001 "
b10101010101010101010101010101010 B
#324
b100010001000100010001000100010 "
b10111011101110111011101110111011 B
#325
b10001000100010001000100010001 "
b10101010101010101010101010101010 B
#326
b100010001000100010001000100010 "
b10111011101110111011101110111011 B
#327
b10001000100010001000100010001 "
b10101010101010101010101010101010 B
#328
b100010001000100010001000100010 "
b10111011101110111011101110111011 B
#329
b10001000100010001000100010001 "
b10101010101010101010101010101010 B
#330
b100010001000100010001000100010 "
b10111011101110111011101110111011 B
#331
b10001000100010001000100010001 "
b10101010101010101010101010101010 B
#332
b100010001000100010001000100010 "
b10111011101110111011101110111011 B
#333
b10001000100010001000100010001 "
b10101010101010101010101010101010 B
#334
b100010001000100010001000100010 "
b10111011101110111011101110111011 B
#335
b10001000100010001000100010001 "
b10101010101010101010101010101010 B
#336
b100010001000100010001000100010 "
b10111011101110111011101110111011 B
#337
b10001000100010001000100010001 "
b10101010101010101010101010101010 B
#338
b100010001000100010001000100010 "
b10111011101110111011101110111011 B
#339
b10001000100010001000100010001 "
b10101010101010101010101010101010 B
#340
b100010001000100010001000100010 "
b10111011101110111011101110111011 B
#341
b10001000100010001000100010001 "
b10101010101010101010101010101010 B
#342
b100010001000100010001000100010 "
b10111011101110111011101110111011 B
#343
b10001000100010001000100010001 "
b10101010101010101010101010101010 B
#344
b100010001000100010001000100010 "
b10111011101110111011101110111011 B
#345
b10001000100010001000100010001 "
b10101010101010101010101010101010 B
#346
b100010001000100010001000100010 "
b10111011101110111011101110111011 B
#347
b10001000100010001000100010001 "
b10101010101010101010101010101010 B
#348
b100010001000100010001000100010 "
b10111011101110111011101110111011 B
#349
b10001000100010001000100010001 "
b10101010101010101010101010101010 B
#350
b100010001000100010001000100010 "
b10111011101110111011101110111011 B
#351
b10001000100010001000100010001 "
b10101010101010101010101010101010 B
#352
b100010001000100010001000100010 "
b10111011101110111011101110111011 B
#353
b10001000100010001000100010001 "
b10101010101010101010101010101010 B
#354
b100010001000100010001000100010 "
b10111011101110111011101110111011 B
#355
b10001000100010001000100010001 "
b10101010101010101010101010101010 B
#356
b100010001000100010001000100010 "
b10111011101110111011101110111011 B
#357
b10001000100010001000100010001 "
b10101010101010101010101010101010 B
#358
b100010001000100010001000100010 "
b10111011101110111011101110111011 B
#359
b10001000100010001000100010001 "
b10101010101010101010101010101010 B
#360
b100010001000100010001000100010 "
b10111011101110111011101110111011 B
#361
b10001000100010001000100010001 "
b10101010101010101010101010101010 B
#362
b100010001000100010001000100010 "
b10111011101110111011101110111011 B
#363
b10001000100010001000100010001 "
b10101010101010101010101010101010 B
#364
b100010001000100010001000100010 "
b10111011101110111011101110111011 B
#365
b10001000100010001000100010001 "
b10101010101010101010101010101010 B
#366
b100010001000100010001000100010 "
b10111011101110111011101110111011 B
#367
b10001000100010001000100010001 "
b10101010101010101010101010101010 B
#368
b100010001000100010001000100010 "
b10111011101110111011101110111011 B
#369
b10001000100010001000100010001 "
b10101010101010101010101010101010 B
#370
b100010001000100010001000100010 "
b10111011101110111011101110111011 B
#371
b10001000100010001000100010001 "
b10101010101010101010101010101010 B
#372
b100010001000100010001000100010 "
b10111011101110111011101110111011 B
#373
b10001000100010001000100010001 "
b10101010101010101010101010101010 B
#374
b100010001000100010001000100010 "
b10111011101110111011101110111011 B
#375
b10001000100010001000100010001 "
b10101010101010101010101010101010 B
#376
b100010001000100010001000100010 "
b10111011101110111011101110111011 B
#377
b10001000100010001000100010001 "
b10101010101010101010101010101010 B
#378
b100010001000100010001000100010 "
b10111011101110111011101110111011 B
#379
b10001000100010001000100010001 "
b10101010101010101010101010101010 B
#380
b100010001000100010001000100010 "
b10111011101110111011101110111011 B
#381
b10001000100010001000100010001 "
b10101010101010101010101010101010 B
#382
b100010001000100010001000100010 "
b10111011101110111011101110111011 B
#383
b10001000100010001000100010001 "
b10101010101010101010101010101010 B
#384
b100010001000100010001000100010 "
b10111011101110111011101110111011 B
#385
b10001000100010001000100010001 "
b10101010101010101010101010101010 B
#386
b100010001000100010001000100010 "
b10111011101110111011101110111011 B
#387
b10001000100010001000100010001 "
b10101010101010101010101010101010 B
#388
b100010001000100010001000100010 "
b10111011101110111011101110111011 B
#389
b10001000100010001000100010001 "
b10101010101010101010101010101010 B
#390
b100010001000100010001000100010 "
b10111011101110111011101110111011 B
#391
b10001000100010001000100010001 "
b10101010101010101010101010101010 B
#392
b100010001000100010001000100010 "
b10111011101110111011101110111011 B
#393
b10001000100010001000100010001 "
b10101010101010101010101010101010 B
#394
b100010001000100010001000100010 "
b10111011101110111011101110111011 B
#395
b10001000100010001000100010001 "
b10101010101010101010101010101010 B
#396
b100010001000100010001000100010 "
b10111011101110111011101110111011 B
#397
b10001000100010001000100010001 "
b10101010101010101010101010101010 B
#398
b100010001000100010001000100010 "
b10111011101110111011101110111011 B
#399
b10001000100010001000100010001 "
b10101010101010101010101010101010 B
#400
b100010001000100010001000100010 "
b10111011101110111011101110111011 B
#401
b10001000100010001000100010001 "
b10101010101010101010101010101010 B
#402
b100010001000100010001000100010 "
b10111011101110111011101110111011 B
#403
b10001000100010001000100010001 "
b10101010101010101010101010101010 B
#404
b100010001000100010001000100010 "
b10111011101110111011101110111011 B
#405
b10001000100010001000100010001 "
b10101010101010101010101010101010 B
#406
b100010001000100010001000100010 "
b10111011101110111011101110111011 B
#407
b10001000100010001000100010001 "
b10101010101010101010101010101010 B
#408
b100010001000100010001000100010 "
b10111011101110111011101110111011 B
#409
b10001000100010001000100010001 "
b10101010101010101010101010101010 B
#410
b100010001000100010001000100010 "
b10111011101110111011101110111011 B
#411
b10001000100010001000100010001 "
b10101010101010101010101010101010 B
#412
b100010001000100010001000100010 "
b10111011101110111011101110111011 B
#413
b10001000100010001000100010001 "
b10101010101010101010101010101010 B
#414
b100010001000100010001000100010 "
b10111011101110111011101110111011 B
#415
b10001000100010001000100010001 "
b10101010101010101010101010101010 B
#416
b100010001000100010001000100010 "
b10111011101110111011101110111011 B
#417
b10001000100010001000100010001 "
b10101010101010101010101010101010 B
#418
b100010001000100010001000100010 "
b10111011101110111011101110111011 B
#419
b10001000100010001000100010001 "
b10101010101010101010101010101010 B
#420
b100010001000100010001000100010 "
b10111011101110111011101110111011 B
#421
b10001000100010001000100010001 "
b10101010101010101010101010101010 B
#422
b100010001000100010001000100010 "
b10111011101110111011101110111011 B
#423
b10001000100010001000100010001 "
b10101010101010101010101010101010 B
#424
b100010001000100010001000100010 "
b10111011101110111011101110111011 B
#425
b10001000100010001000100010001 "
b10101010101010101010101010101010 B
#426
b100010001000100010001000100010 "
b10111011101110111011101110111011 B
#427
b10001000100010001000100010001 "
b10101010101010101010101010101010 B
#428
b100010001000100010001000100010 "
b10111011101110111011101110111011 B
#429
b10001000100010001000100010001 "
b10101010101010101010101010101010 B
#430
b100010001000100010001000100010 "
b10111011101110111011101110111011 B
#431
b10001000100010001000100010001 "
b10101010101010101010101010101010 B
#432
b100010001000100010001000100010 "
b10111011101110111011101110111011 B
#433
b10001000100010001000100010001 "
b10101010101010101010101010101010 B
#434
b100010001000100010001000100010 "
b10111011101110111011101110111011 B
#435
b10001000100010001000100010001 "
b10101010101010101010101010101010 B
#436
b100010001000100010001000100010 "
b10111011101110111011101110111011 B
#437
b10001000100010001000100010001 "
b10101010101010101010101010101010 B
#438
b100010001000100010001000100010 "
b10111011101110111011101110111011 B
#439
b10001000100010001000100010001 "
b10101010101010101010101010101010 B
#440
b100010001000100010001000100010 "
b10111011101110111011101110111011 B
#441
b10001000100010001000100010001 "
b10101010101010101010101010101010 B
#442
b100010001000100010001000100010 "
b10111011101110111011101110111011 B
#443
b10001000100010001000100010001 "
b10101010101010101010101010101010 B
#444
b100010001000100010001000100010 "
b10111011101110111011101110111011 B
#445
b10001000100010001000100010001 "
b10101010101010101010101010101010 B
#446
b100010001000100010001000100010 "
b10111011101110111011101110111011 B
#447
b10001000100010001000100010001 "
b10101010101010101010101010101010 B
#448
b100010001000100010001000100010 "
b10111011101110111011101110111011 B
#449
b10001000100010001000100010001 "
b10101010101010101010101010101010 B
#450
b100010001000100010001000100010 "
b10111011101110111011101110111011 B
#451
b10001000100010001000100010001 "
b10101010101010101010101010101010 B
#452
b100010001000100010001000100010 "
b10111011101110111011101110111011 B
#453
b10001000100010001000100010001 "
b10101010101010101010101010101010 B
#454
b100010001000100010001000100010 "
b10111011101110111011101110111011 B
#455
b10001000100010001000100010001 "
b10101010101010101010101010101010 B
#456
b100010001000100010001000100010 "
b10111011101110111011101110111011 B
#457
b10001000100010001000100010001 "
b10101010101010101010101010101010 B
